<svg xmlns="http://www.w3.org/2000/svg" width="38.228" height="35.714" viewBox="0 0 38.228 35.714">
  <path id="Path_419" data-name="Path 419" d="M2360.029,136.051h0a10.083,10.083,0,0,0-8.482-2.377,8.093,8.093,0,0,1-14.976,0,10.089,10.089,0,0,0-8.484,2.378c-2.786,2.554-3.782,6.862-2.734,11.82a.217.217,0,0,0,.025.062.845.845,0,0,0,.141.26.218.218,0,0,0,.048.06.324.324,0,0,0,.051.033.719.719,0,0,0,.123.082.774.774,0,0,0,.277.083.232.232,0,0,0,.08.009l.063-.012a.7.7,0,0,0,.076,0,.215.215,0,0,0,.06-.024.7.7,0,0,0,.134-.057.8.8,0,0,0,.129-.085.212.212,0,0,0,.049-.035l2.236-2.233a1.154,1.154,0,0,1,1.659,1.6l-3.655,3.654a.744.744,0,1,0,1.051,1.054l3.606-3.606.025-.019a.2.2,0,0,0,.025-.031l2.18-2.183.034-.024a1.18,1.18,0,0,1,1.636,0,1.158,1.158,0,0,1,.016,1.619l-6.762,6.76a.744.744,0,0,0,1.053,1.053l5.869-5.862a1.155,1.155,0,0,1,1.617,1.65l-6.238,6.238a.744.744,0,0,0,1.053,1.053l4.9-4.9a1.148,1.148,0,0,1,.817-.338h0a1.156,1.156,0,0,1,.82,1.971l-4.92,4.923-.006.006-.021.023a.506.506,0,0,0-.06.1.735.735,0,0,0-.081.139.727.727,0,0,0-.026.129.461.461,0,0,0,.006.285.714.714,0,0,0,.039.145.567.567,0,0,0,.07.1.693.693,0,0,0,.082.12l.008.007.015.015a66.039,66.039,0,0,0,10.023,7.416.743.743,0,0,0,.776,0,66.027,66.027,0,0,0,10.022-7.416l.01-.01.021-.021a.515.515,0,0,0,.063-.094.755.755,0,0,0,.081-.122l.01-.024q.031-.121.053-.245l0-.012v-.012a.567.567,0,0,0-.018-.123.688.688,0,0,0-.034-.158.553.553,0,0,0-.063-.1.733.733,0,0,0-.078-.125l-.009-.009-4.928-4.932a1.156,1.156,0,1,1,1.635-1.635l4.9,4.9a.762.762,0,0,0,1.052,0,.744.744,0,0,0,0-1.053l-6.238-6.239a1.157,1.157,0,1,1,1.643-1.63l5.844,5.843a.744.744,0,0,0,1.052-1.053l-5.836-5.83-.911-.917a1.155,1.155,0,0,1,.817-1.971h0a1.147,1.147,0,0,1,.817.338l2.148,2.142c.028.033.056.063.094.1l3.629,3.623a.744.744,0,1,0,1.052-1.054l-3.626-3.617a.209.209,0,0,0-.029-.032l-.015-.02a1.147,1.147,0,0,1,.04-1.592,1.181,1.181,0,0,1,1.635,0l2.236,2.236a.214.214,0,0,0,.054.038.852.852,0,0,0,.261.142.206.206,0,0,0,.058.022.544.544,0,0,0,.132.014l.011,0h.011a.739.739,0,0,0,.272-.055.5.5,0,0,0,.057-.032.682.682,0,0,0,.157-.1l.039-.028a.2.2,0,0,0,.036-.051.736.736,0,0,0,.1-.149.633.633,0,0,0,.037-.091.686.686,0,0,0,.031-.081C2363.812,142.913,2362.815,138.6,2360.029,136.051Zm-10.773,13.9a2.647,2.647,0,0,0,.332,2.432,2.614,2.614,0,0,0-1.065.641,2.647,2.647,0,0,0-.025,3.708l4.382,4.392a65.275,65.275,0,0,1-8.823,6.488,65.306,65.306,0,0,1-8.823-6.488l4.357-4.357.021-.027a2.656,2.656,0,0,0-.021-3.717,2.62,2.62,0,0,0-1.065-.64,2.633,2.633,0,0,0-1.51-4.087,2.643,2.643,0,0,0-.562-2.889,2.7,2.7,0,0,0-3.7-.031.174.174,0,0,0-.044.032l-.562.561a2.617,2.617,0,0,0-.62-1.009,2.653,2.653,0,0,0-3.713-.023l-1.243,1.236c-.509-3.867.382-7.065,2.516-9.02a8.743,8.743,0,0,1,7.236-2.01,9.983,9.983,0,0,1,7.083,5.363.77.77,0,0,0,1.3-.006,9.978,9.978,0,0,1,7.08-5.357,8.743,8.743,0,0,1,7.233,2.008c2.136,1.958,3.027,5.156,2.518,9.023l-1.218-1.218a2.7,2.7,0,0,0-3.737,0,2.665,2.665,0,0,0-.626,1.007l-.558-.558c-.017-.017-.032-.025-.034-.023a2.634,2.634,0,0,0-4.269,2.911A2.647,2.647,0,0,0,2349.255,149.948Z" transform="translate(-2324.943 -133.513)" fill="#04d2c7"/>
</svg>
